@startuml

object dispatcher {
    dispatch()
}
object loop

object dispatchable {
    handle_event()
}

object signal_handler

object timer
object one_shot_timer
object auto_reload_timer

object transport
object tcp_client_transport
object tcp_server_transport
object udp_client_transport
object udp_server_transport
object udp_publisher_transport
object udp_listener_transport

loop -right-> dispatcher : use
dispatcher -right-> dispatchable : use

signal_handler -left-|> dispatchable

timer --|> dispatchable
one_shot_timer --|> timer
auto_reload_timer --|> timer

transport --|> dispatchable
tcp_client_transport --|> transport
tcp_server_transport --|> transport
udp_client_transport --|> transport
udp_server_transport --|> transport
udp_publisher_transport -up-|> transport
udp_listener_transport -up-|> transport

@enduml

